160 angstroemd0
periodic  8.2376 8.2376  24.7128    #Ga64O96 (0.791666666667, 0.854166666667, 0.0208333333333, 0.0208333333333)
G1  3.0891  3.0891  23.6831
G1  7.2079  3.0891  11.3267
G1  5.1485  5.1485  17.5049
G1  5.1485  5.1485  1.0297
G1  5.1485  1.0297  5.1485
G1  3.0891  3.0891  15.4455
G1  7.2079  3.0891  3.0891
G1  1.0297  1.0297  17.5049
G1  5.1485  1.0297  21.6237
G1  1.0297  1.0297  1.0297
G1  1.0297  5.1485  5.1485
G1  7.2079  3.0891  19.5643
G1  7.2079  7.2079  23.6831
G1  3.0891  7.2079  3.0891
G1  7.2079  7.2079  7.2079
G1  1.0297  5.1485  13.3861
G1  7.2079  7.2079  15.4455
G1  5.1485  1.0297  13.3861
G1  3.0891  7.2079  11.3267
G2  0.0  6.1782  2.0594
G2  0.0  0.0  4.1188
G2  4.1188  4.1188  4.1188
G2  4.1188  6.1782  22.6534
G2  4.1188  0.0  8.2376
G2  6.1782  0.0  2.0594
G2  2.0594  2.0594  4.1188
G2  4.1188  0.0  16.4752
G2  2.0594  0.0  6.1782
G2  4.1188  2.0594  10.297
G2  0.0  6.1782  10.297
G2  6.1782  0.0  10.297
G2  4.1188  6.1782  14.4158
G2  0.0  4.1188  0.0
G2  6.1782  4.1188  14.4158
G2  2.0594  0.0  14.4158
G2  4.1188  2.0594  2.0594
G2  0.0  2.0594  22.6534
G2  4.1188  2.0594  18.5346
G2  2.0594  4.1188  2.0594
G2  6.1782  2.0594  0.0
G2  6.1782  0.0  18.5346
G2  4.1188  0.0  0.0
G2  6.1782  2.0594  16.4752
G2  6.1782  2.0594  8.2376
G2  2.0594  2.0594  20.594
G2  6.1782  6.1782  4.1188
G2  0.0  6.1782  18.5346
G2  0.0  4.1188  16.4752
G2  0.0  4.1188  8.2376
G2  0.0  0.0  12.3564
G2  0.0  2.0594  14.4158
G2  0.0  2.0594  6.1782
G2  6.1782  4.1188  6.1782
G2  2.0594  4.1188  10.297
G2  2.0594  6.1782  0.0
G2  2.0594  6.1782  8.2376
G2  2.0594  0.0  22.6534
G2  2.0594  2.0594  12.3564
G2  0.0  0.0  20.594
G2  2.0594  6.1782  16.4752
G3  5.1485  5.1485  11.2690368
G3  7.2655632  5.1485  21.6237
G3  3.0891  5.2061632  19.5643
G4  2.0594  2.0594  8.2376
O  4.16163552  4.16163552  22.61056448
O  2.01656448  0.04283552  12.39923552
O  6.13536448  2.01656448  10.25416448
O  6.13536448  4.16163552  20.63683552
O  6.22103552  2.10223552  22.69623552
O  4.07596448  8.19476448  14.45863552
O  4.16163552  2.01656448  0.04283552
O  4.07596448  8.19476448  22.69623552
O  6.22103552  8.19476448  20.55116448
O  2.01656448  0.04283552  4.16163552
O  8.19476448  6.22103552  4.07596448
O  6.13536448  6.13536448  6.13536448
O  6.22103552  8.19476448  12.31356448
O  4.07596448  6.22103552  8.19476448
O  4.07596448  2.10223552  12.31356448
O  6.13536448  4.16163552  12.39923552
O  2.10223552  6.22103552  14.45863552
O  4.07596448  2.10223552  20.55116448
O  2.01656448  6.13536448  10.25416448
O  4.07596448  6.22103552  24.66996448
O  2.01656448  0.04283552  20.63683552
O  6.22103552  4.07596448  16.43236448
O  6.22103552  6.22103552  18.57743552
O  6.22103552  4.07596448  8.19476448
O  6.22103552  2.10223552  6.22103552
O  2.01656448  4.16163552  8.28043552
O  2.01656448  2.01656448  22.61056448
O  8.19476448  8.19476448  10.33983552
O  4.07596448  4.07596448  2.10223552
O  2.01656448  4.16163552  16.51803552
O  4.07596448  2.10223552  4.07596448
O  6.13536448  2.01656448  18.49176448
O  2.10223552  2.10223552  18.57743552
O  0.04283552  2.01656448  4.16163552
O  2.01656448  4.16163552  0.04283552
O  0.04283552  2.01656448  20.63683552
O  4.16163552  0.04283552  18.49176448
O  8.19476448  2.10223552  8.19476448
O  2.10223552  4.07596448  12.31356448
O  6.13536448  0.04283552  16.51803552
O  8.19476448  4.07596448  14.45863552
O  8.19476448  4.07596448  6.22103552
O  4.16163552  6.13536448  20.63683552
O  8.19476448  2.10223552  16.43236448
O  2.10223552  4.07596448  4.07596448
O  6.22103552  4.07596448  24.66996448
O  0.04283552  0.04283552  6.13536448
O  2.01656448  2.01656448  14.37296448
O  4.16163552  0.04283552  2.01656448
O  6.22103552  6.22103552  2.10223552
O  0.04283552  0.04283552  14.37296448
O  4.16163552  6.13536448  4.16163552
O  4.16163552  6.13536448  12.39923552
O  6.13536448  0.04283552  8.28043552
O  4.07596448  4.07596448  10.33983552
O  2.10223552  8.19476448  16.43236448
O  8.19476448  8.19476448  2.10223552
O  0.04283552  6.13536448  8.28043552
O  2.10223552  6.22103552  6.22103552
O  2.10223552  2.10223552  2.10223552
O  4.07596448  8.19476448  6.22103552
O  8.19476448  6.22103552  20.55116448
O  6.22103552  2.10223552  14.45863552
O  6.22103552  6.22103552  10.33983552
O  0.04283552  6.13536448  0.04283552
O  6.13536448  2.01656448  2.01656448
O  2.10223552  8.19476448  8.19476448
O  8.19476448  8.19476448  18.57743552
O  6.13536448  4.16163552  4.16163552
O  2.01656448  2.01656448  6.13536448
O  2.10223552  4.07596448  20.55116448
O  0.04283552  6.13536448  16.51803552
O  2.10223552  2.10223552  10.33983552
O  8.19476448  4.07596448  22.69623552
O  4.16163552  4.16163552  14.37296448
O  0.04283552  0.04283552  22.61056448
O  0.04283552  4.16163552  2.01656448
O  0.04283552  4.16163552  18.49176448
O  8.19476448  6.22103552  12.31356448
O  2.01656448  6.13536448  2.01656448
O  2.10223552  8.19476448  24.66996448
O  4.16163552  2.01656448  16.51803552
O  4.16163552  4.16163552  6.13536448
O  2.10223552  6.22103552  22.69623552
O  4.16163552  0.04283552  10.25416448
O  4.07596448  6.22103552  16.43236448
O  2.01656448  6.13536448  18.49176448
O  0.04283552  2.01656448  12.39923552
O  4.07596448  4.07596448  18.57743552
O  0.04283552  4.16163552  10.25416448
O  6.13536448  0.04283552  0.04283552
O  6.13536448  6.13536448  22.61056448
O  8.19476448  2.10223552  24.66996448
O  4.16163552  2.01656448  8.28043552
O  6.13536448  6.13536448  14.37296448
O  6.22103552  8.19476448  4.07596448
