160 angstroemd0
periodic  8.2376 8.2376  24.7128
G1  0.835185617667  5.20610927744  21.5620666531
G1  3.04387472487  7.18348238722  3.05610254143
G1  1.21889455275  0.984382584661  9.3505382369
G1  1.02445660572  5.13012403229  5.198943372
G1  3.01658979625  3.17613611263  15.4572895901
G1  5.04996597108  1.08193112465  5.06390548604
G1  3.2515939894  7.15926586886  11.3263175821
G1  7.30680018993  3.00570805865  11.3793762538
G1  7.08809567513  3.21565570425  19.568691085
G1  1.20939595522  5.00754582847  13.3312729659
G1  0.935181502647  0.965015275813  1.02493781531
G1  5.31366470419  5.13956771218  9.19465195698
G1  7.13389277348  7.17753349128  23.7240608405
G1  0.929159960328  1.1464890018  17.5318492997
G1  5.00474868032  5.22551505012  17.5359089496
G1  2.92942815193  7.23004801565  19.5096667656
G1  3.1677759208  2.98369143964  7.18196197021
G1  4.96617333313  1.14591270721  21.7372080941
G1  5.22696942651  5.26225730665  1.09394930334
G1  5.35738976774  0.859541257491  13.5158986661
G1  7.27996783094  3.06440856695  3.016269262
G2  6.28093057424  6.06529708612  12.4559082417
G2  6.03458343307  2.13505660637  0.145926176039
G2  1.94095770705  2.14682852724  20.6488208759
G2  6.07966970853  0.051756794065  2.10505566992
G2  1.99398607468  0.0946719312245  6.21666970146
G2  2.0096663892  2.15703651567  4.11198262357
G2  4.05692433767  4.04805639641  3.92909012486
G2  6.05227874668  0.080097927919  18.4947461881
G2  2.20676327172  4.03560274664  10.2963529628
G2  5.98659656704  6.30116400226  20.6889110826
G2  8.20795196081  0.109459402895  4.21031162533
G2  4.34110693861  0.0371134391712  8.14798061186
G2  4.02279650538  2.15138043116  18.5247073447
G2  4.18799791643  6.09073236003  6.12016968065
G2  2.26692442678  1.87709483133  12.5018279175
G2  3.95939913815  8.22953477377  0.0840134428994
G2  6.35404937854  0.0305463771869  10.2202856749
G2  0.206807440103  8.14911898871  12.4651041722
G2  4.35172538325  3.98251480074  12.5458097471
G2  8.15110661094  6.17357149817  18.315305306
G2  0.234797454653  6.14985169797  2.02529240209
G2  6.24778058697  4.01754057834  6.20966695566
G2  0.194636609451  4.19681157537  0.0582106112862
G2  8.13912653022  0.0194014157282  20.5980049239
G2  8.15585976682  2.07658481784  22.6934034574
G2  3.92267564972  4.31554509109  20.677723092
G2  1.87596865752  4.24651170986  18.2594581098
G2  4.13392236011  6.14285626516  14.530173254
G2  2.04791083178  0.00491274538571  22.7142449468
G2  6.16930183199  2.1389033795  16.3822205308
G2  0.0857730560715  2.06291784558  14.5159319324
G2  0.0302891081818  4.0030493817  8.16213127261
G2  4.36306820025  2.0827719965  10.1854249988
G2  6.00848087561  4.2649953652  22.7431938869
G2  0.0792816083865  6.07914392523  10.259731229
G2  6.24271682363  6.08874096718  4.15782782793
G2  2.11315707542  6.12180055792  8.23392470419
G2  4.03504980897  0.0295714820779  16.3855837336
G3  7.27356090479  1.01665650519  7.20290988995
G3  3.10067913288  3.01171507443  1.04743305889
G3  1.10451815173  7.25567559361  15.4118270792
G3  3.06615600326  5.28066720543  23.6283737148
G3  7.14374761584  5.0663188571  15.3857391228
O  1.97303945355  2.03809249392  2.0525824939
O  6.02743870661  5.9416547365  5.98370290294
O  4.10484843116  8.11619098316  6.2208862825
O  4.2094662911  8.10987339975  2.00077131286
O  8.18798751362  6.24268411525  4.10502700274
O  0.114660078252  1.98927466581  4.0264880919
O  6.35111745039  4.09413471936  8.17114113109
O  2.08766778387  4.08650928711  24.6263634313
O  8.14574292213  4.24225064562  1.9306229474
O  8.18625380469  4.11990850178  6.27048812037
O  4.19828937413  1.92803851728  0.100508165637
O  4.12964017947  6.22349624389  8.18018431325
O  2.00537957905  0.0669701206926  4.22975724057
O  6.21312632818  8.19001509133  4.08625494435
O  2.18649867592  6.22910422527  6.27267887589
O  6.29345768583  1.93777390434  1.99194560385
O  4.16560677668  4.12549593464  2.03739193498
O  4.21715480943  4.10879656809  6.17454595166
O  0.134811436615  2.01096601282  8.30895106645
O  8.10147552506  6.08224258794  0.0903103085463
O  0.109788531732  0.0339342846084  6.10798979474
O  8.12774540045  8.13192590723  2.14007335773
O  4.14677707519  6.04984372962  4.14959460769
O  3.98909052544  2.14467720286  4.07016721152
O  6.16026854495  2.0299200716  6.16029691452
O  1.99378179889  6.22899077265  2.0870241613
O  2.14632444027  4.04560758455  4.24012272019
O  6.12472944047  4.07666777544  4.12144876561
O  6.1032770657  0.0754983825464  0.0697722877621
O  2.20194120651  8.10152461522  8.21455566019
O  6.25729199934  6.26969487752  2.22152845385
O  2.19135305109  1.93213689394  6.11668138977
O  2.29236640192  2.07649568799  10.4066534749
O  6.09650299267  6.05959834584  14.2934482891
O  4.17839986988  8.11420808302  14.4758736293
O  4.32557287245  0.00613752262129  10.2197586222
O  0.0685571650954  6.1569794387  12.2422347947
O  0.18509863871  1.93090606204  12.4013156095
O  6.0937338311  4.12143794998  16.5460283134
O  2.1295156305  4.0792848642  8.31408808593
O  0.197632294905  4.0576093106  10.3069537903
O  0.00689846488493  4.07773792496  14.3053983945
O  4.09217503988  1.90018274498  8.33506361318
O  4.12175328263  6.33604697232  16.4315156041
O  2.1064235837  0.0287859019225  12.1824284185
O  6.38633873729  8.06320415415  12.2895506305
O  2.12207201954  6.19409790267  14.3302413075
O  6.21136878094  1.90616661447  10.4365777522
O  4.19235313463  4.01261654358  10.2867635957
O  4.04831957019  4.22021187611  14.3498978472
O  8.09053280338  2.04694735666  16.4201312109
O  0.29141883917  5.90745575881  8.45112643938
O  0.163245587284  0.093067234637  14.2916297656
O  0.0690765439595  8.10836644722  10.3587522552
O  4.28158491737  6.0684299452  12.3914877943
O  4.20401166175  2.03998950404  12.364481933
O  6.33964559669  2.02682980778  14.4739307582
O  2.17938824563  6.03418506792  10.275452428
O  2.29164871572  3.98293751199  12.2267178789
O  6.18066734888  4.17166361171  12.2002636292
O  6.20558961565  0.0244528087807  8.32294141442
O  2.04535177383  0.0747453233298  16.5583968794
O  6.35209202918  6.22570390113  10.3354266233
O  2.00492093884  2.16101228789  14.3178563767
O  2.0062909576  2.1926230979  18.663473726
O  6.21419657179  6.14031977704  22.5531835237
O  3.94822403523  0.0753893949196  22.750799538
O  4.02098647534  0.16672226834  18.543576432
O  8.01255390495  6.32309422906  20.5149151774
O  8.12717733775  2.03366816809  20.5987634551
O  6.13567665996  4.07378181929  24.6473081206
O  2.0199049968  4.10678761247  16.5208881526
O  8.21186723247  4.274586171  18.6264400359
O  8.09188580592  4.0750287711  22.7114695244
O  4.09446745423  2.07895272108  16.5477569364
O  4.18192242235  6.24563149906  24.6783446057
O  1.86503983287  0.0700723491021  20.5994885537
O  6.09589068891  0.0341780392459  20.5413139177
O  1.92253274359  6.25076747217  22.5873051681
O  5.99306160059  2.12559752314  18.5590244093
O  3.93774544271  4.11490191219  18.6375465271
O  4.13615162489  4.2707699892  22.5307303647
O  8.1116357927  2.16484025717  24.6334010384
O  8.14643273898  6.24689073836  16.4061992085
O  8.13957975745  0.060934173663  22.5798757666
O  8.06251105445  0.00285407030048  18.6077054142
O  4.11033876985  6.18462826302  20.4208375291
O  3.93712650392  2.20826667253  20.5487541297
O  6.16615845966  2.19275893695  22.7175773882
O  1.81151690612  6.13353257236  18.5959775282
O  1.99359036797  4.10329397033  20.5910412181
O  6.00203806741  4.26494966563  20.6679920105
O  5.90000880244  0.281301423874  16.6964342634
O  2.04409115089  0.0669570893778  24.6063664648
O  6.1708671437  6.3186102674  18.5870479361
O  1.74914795918  1.88738413686  22.4520309244
