160 angstroemd0
periodic  8.2376 8.2376  24.7128
G1  5.1417862149  1.19142451071  13.4304129266
G1  7.232092327  7.10302715881  23.7217871551
G1  7.071187979  3.14720713451  3.07075989309
G1  3.10928651705  7.01293792108  19.5028300388
G1  1.07583326338  1.19362731371  9.19719156669
G1  5.06942778537  5.22824820881  17.4894529011
G1  3.1574134876  3.02551698656  23.669654334
G1  5.20082443969  5.32043841333  9.21324209009
G1  3.10527831374  7.27898874793  11.2860415138
G1  5.25830121889  5.01155101685  1.08253197635
G1  5.21877402627  1.01027746628  21.6451679999
G1  7.05428449539  7.18412963526  7.23037270448
G1  7.27202101392  7.25954314593  15.5041008482
G1  0.969763552047  0.938994401698  17.5028854646
G1  7.18412411929  3.20315018371  11.3437318716
G1  0.97435998748  5.16205595472  5.15214681935
G1  0.943164832476  5.23914788174  13.3648060259
G1  5.09152705961  1.04569372123  5.14689250254
G1  1.135849498  0.893884796237  1.09800872325
G1  1.16406179578  5.0551226712  21.5699366505
G1  3.2517110564  3.05564982334  15.4542500579
G1  2.95435976242  7.2643610373  3.07062040652
G1  7.30982260449  2.98140495484  19.5853414919
G1  2.93744750728  3.06706069765  7.23025467988
G2  4.2865881199  4.00946427619  20.3997561287
G2  6.27122806753  1.89987865519  0.131048186654
G2  -0.0880659388687  5.98721960595  18.4663158993
G2  6.29274173546  4.11115085483  22.5911013693
G2  4.08453582896  4.31849310266  12.4939950554
G2  -0.0423177005592  -0.225520187679  20.6228703943
G2  2.15227732604  -0.110341100299  22.6874107425
G2  2.18584328899  -0.0474776137939  14.3720409663
G2  6.22369633978  0.200092212165  10.1346467457
G2  2.12973356627  4.34310887995  10.1288622032
G2  -0.190158140251  2.01202449931  6.3242816738
G2  2.07361243309  3.93874239676  18.3517122417
G2  0.0560878640103  2.21532625327  14.6009066567
G2  6.01845470916  4.06081700465  6.26202724875
G2  4.27007340423  6.12065019096  22.5082682921
G2  6.0369600488  6.26784900312  4.0342405251
G2  0.145363069988  3.97348305716  0.171492206976
G2  1.91888909203  2.1508470162  4.03910392665
G2  -0.183480616267  0.08503684592  3.96192956992
G2  2.18941312178  5.97487536475  0.137927083715
G2  3.93204827229  6.13121092177  6.33204445235
G2  2.21855231954  1.90054692766  20.4281051531
G2  -0.0689132669694  4.19399655042  8.22640737372
G2  -0.0136999028518  6.13140524553  2.0805953616
G2  4.28735562623  -0.174329236954  0.178409165897
G2  3.93749810507  4.20497874442  3.95581105509
G2  4.22768294111  2.25573985416  10.1643639984
G2  4.14085744922  -0.0117187269963  16.4908018243
G2  6.04978090094  -0.0803036425534  18.6916199965
G2  6.16227995508  2.17371312964  16.6975302518
G2  0.0625349380614  6.33899177278  10.1684977936
G2  0.0858285343129  1.99060258332  22.6393469605
G2  -0.030295086458  0.118963690266  12.3851341184
G2  2.07940060432  6.02162456665  16.3243978297
G2  1.9001314447  -0.0602569943996  6.25745994855
G2  6.2040814276  4.29672963288  14.5993979488
G2  4.05714892273  0.0896637764328  8.21735150622
G2  4.09299998741  2.01998496189  2.07049166379
G2  6.09847027708  6.3351371618  12.4383482178
G2  2.07027776336  2.18472866156  12.3228213455
O  2.13320500505  1.97390128231  2.1516080421
O  5.98442537734  6.11605923726  6.07244077915
O  3.96770395155  8.20742136834  6.21716139775
O  4.04469917918  0.056146858949  2.03120541549
O  8.10232549031  6.24771479246  4.07873076629
O  -0.0454248061407  2.02395711286  4.14253644307
O  6.21596990978  4.24491694073  8.1511697841
O  2.02459010818  4.10110612852  -0.0818300446345
O  -0.0589537365916  4.1606325364  2.03685397218
O  8.08554950273  4.08593379734  6.21900788227
O  4.22180681591  1.91054157304  0.0634259228448
O  4.11753508608  6.35231634551  8.1779564196
O  1.87499719043  0.0976869250257  4.22193878902
O  6.18843771227  8.15455181321  4.22096096275
O  2.06686055172  6.29399617923  6.07157381435
O  6.06678161179  2.06878271497  2.01004924199
O  4.1532484461  3.98567551697  2.10868640886
O  4.06334536188  4.18881712034  6.16109246442
O  8.22690775631  2.22224651994  8.17350305756
O  0.112518952406  6.02340382307  0.0844816565056
O  -0.0554856328595  0.0667903553591  6.15496299651
O  8.27161212117  8.10676776854  2.11548169685
O  4.07541177983  6.14314039383  4.13704896995
O  3.98118929948  2.1311008317  4.07549898459
O  6.18181971647  2.17695567242  6.06931500986
O  1.94988715608  6.18346385663  2.01286591049
O  2.07258776554  4.03690838404  4.2240061657
O  5.99154834754  4.21741143264  4.22233496564
O  6.15247358531  0.00600847625743  -0.0561077957157
O  2.09571246335  8.3635765877  8.14446813129
O  6.26232107322  6.08399202136  2.14934405904
O  1.86739058091  1.99752109519  6.07303490125
O  2.13229903564  2.2529790148  10.3595304828
O  6.35607302928  6.17679487831  14.3217754427
O  4.04515431389  8.37848664997  14.3934392803
O  4.1701620203  0.180195923264  10.2147856429
O  8.15813697475  6.38260561218  12.2120095441
O  0.0984146091723  2.0698410878  12.3097547068
O  6.06288066437  4.06707584702  16.4419069418
O  1.90250451229  4.13781115367  8.27554326825
O  0.0466389029605  4.28560845837  10.2355063876
O  8.12998631115  4.06628948903  14.2479728618
O  4.01307395129  2.04613298598  8.28637857165
O  3.98045162877  6.30385257695  16.4662269155
O  2.00867084965  0.156119420527  12.3556790831
O  6.23710541311  8.29628918015  12.2922052721
O  1.94795844414  6.30124022892  14.4106280816
O  6.09901485025  2.08061322701  10.38863568
O  4.06830089269  4.19145344789  10.2626277142
O  4.27438696775  4.06405039378  14.3038891746
O  8.1224445406  1.93814805241  16.4162578833
O  -0.108867855042  6.16065945798  8.28593919145
O  0.0975044604647  0.164657346527  14.2957612468
O  8.19522482346  8.32046906876  10.3001696493
O  4.21004933855  6.19910081005  12.2331385732
O  4.04107762172  2.24827077049  12.2256302625
O  6.32305525776  2.20434901952  14.4179646673
O  1.9560227261  6.20780287154  10.3590398573
O  2.12803155746  4.17125087973  12.2632448431
O  6.08479232171  4.3266992743  12.3353645797
O  6.03488711074  0.0365003627374  8.26912838263
O  2.14726786805  8.24059359558  16.3473847848
O  6.26056275509  6.40197873214  10.3572648225
O  1.99879057189  2.08571260173  14.2955817637
O  1.9606216709  2.0423263389  18.5827107421
O  6.15293048514  6.00011795855  22.7781415135
O  4.13311740039  8.07077763321  22.7480939039
O  4.17808872957  -0.140221373607  18.5186161774
O  8.41124465946  6.16896284942  20.5738971906
O  0.171204155576  1.86587679341  20.7388781264
O  6.34262329299  3.94129895157  24.6528535127
O  2.18438612706  4.1175685804  16.4671817071
O  0.139621372755  4.12482866774  18.6673836376
O  8.26032329145  3.96656151994  22.7164033462
O  4.27501986946  1.92159999302  16.4239497754
O  4.12902588062  6.13680229496  24.7549970025
O  2.08966332345  -0.0291971934304  20.6992203433
O  6.29735655394  8.25033215779  20.6017517222
O  2.20693504154  6.15720118315  22.784768919
O  6.33571492222  1.87999702259  18.5248812372
O  4.02729075865  4.15979996591  18.586259715
O  4.28122941766  4.129515259  22.6840703901
O  8.26323853214  2.00872274974  24.7110882434
O  0.164901142258  6.29855298534  16.5480928937
O  0.127790576208  -0.0508022839387  22.6541406652
O  8.21777042301  8.06952665163  18.6819074568
O  4.02878305598  5.95032423419  20.6908025538
O  4.05786650553  2.07869759406  20.7750964337
O  6.34647503709  2.03746944489  22.8025689495
O  1.96883225887  6.01232833728  18.4216587302
O  2.20360713424  3.88229787591  20.5873109085
O  6.15552315383  3.87571357332  20.7178908058
O  6.1103352969  0.0521454010609  16.5375950727
O  2.19557900707  8.06606741226  24.6529576601
O  6.28200535146  6.23624379772  18.440960623
O  2.03853404515  1.86470401085  22.7063091555
