160 angstroemd0
periodic  8.2376 8.2376  24.7128
G1  5.12734860397  5.12329155216  0.97266637121
G1  1.11229143476  5.18465976827  5.05533424821
G1  5.16341244612  0.90858865787  21.6938526949
G1  5.24310908437  1.07008111769  5.06422155364
G1  1.0711720364  1.05063359759  9.19302492176
G1  1.13096386659  1.1776726604  0.891133997877
G1  3.07600375099  3.09415771617  15.3752627433
G1  7.18094238639  7.21222064686  15.3639670564
G1  7.15353269696  3.08137594503  19.6149641717
G1  7.15362442025  7.1571007944  23.693639081
G1  3.0062834472  7.07601233788  11.3207242829
G1  3.07058632791  7.12278835185  3.16032585468
G1  5.055084816  5.08301566703  17.599949692
G1  7.2217781809  7.26720008999  7.22094159744
G1  3.16562982495  3.05481410859  7.31705136874
G1  3.04117758235  7.19295227603  19.6583539886
G1  7.25096901725  3.08095179725  3.11421298644
G1  1.05041511256  1.07489188093  17.5979318677
G1  7.30696424564  3.26447903845  11.3081327237
G1  0.927917540052  5.24587205661  21.6511648885
G2  -0.00581421486426  4.14021684546  8.24633166229
G2  4.18819065701  3.98460424582  11.9805831021
G2  4.06176473262  6.19127578286  14.3543262227
G2  -0.0330871136643  6.1542558653  18.5696159973
G2  2.05312182172  -0.0747240665022  14.3574663825
G2  6.13123505584  2.0506757751  0.0531518676189
G2  2.13374428529  6.23025080567  8.21226603129
G2  6.11327298461  2.08908949066  16.4447307699
G2  6.1616586014  2.09437179486  8.40802604482
G2  0.181652625737  6.2422408624  1.92770036065
G2  0.144061450991  4.22119917988  -0.0614788715616
G2  4.04891929684  0.0178478310655  16.4587037522
G2  4.02667659826  2.09560519642  18.7467409577
G2  3.98103487843  -0.0835155753509  0.063617115625
G2  2.0630301913  6.13546119224  16.4628920957
G2  0.047295751031  0.0680933899715  20.5909949201
G2  -0.0421032278112  2.12547641688  14.3593969167
G2  6.118456662  0.000905370574652  18.5639280622
G2  -0.153576631078  0.0728518772868  12.1358137842
G2  4.28114639619  -0.028981771524  8.48008065883
G2  -0.120432117894  6.31394608809  10.2806130191
G2  6.20540107171  4.0619609848  6.19895223949
G2  3.95863608326  1.97214639643  2.09588506674
G2  6.00760808884  6.08993112491  20.6228477352
G2  2.20946759392  4.04469971564  10.2918621148
G2  2.22088015859  0.177406007013  6.0902123688
G2  2.08151346254  4.05446337791  18.7421938321
G2  0.165112975115  0.110400722483  4.0421375273
G2  6.01968318054  4.0484114118  22.5930703404
G2  2.22881293027  2.0376410373  12.1710932963
G2  0.0565523817023  2.1121946168  22.5828980645
G2  6.21860524281  -0.0198566641023  2.03743396412
G2  6.13292617719  6.35446704459  11.9876923155
G2  2.03809796031  0.000249777479847  22.6641994441
G2  6.20826606189  4.11903673326  14.3537474368
G2  6.24333875651  6.14261867566  4.07809342009
G2  3.86118896714  5.98553799706  22.7358936207
G2  0.130782995241  2.12297540116  6.08525083981
G2  4.1690609528  6.25008422201  6.19782963306
G2  -0.00429950824527  4.08236390186  16.4700525403
G2  4.0054354838  4.00558845724  4.16185260178
G2  2.09028383331  4.12763727287  1.93875509418
G3  3.01922774412  3.04010510691  21.6982966149
G3  5.16564029427  1.0631584554  11.3516988415
O  6.19310244501  6.23504061358  18.644436635
O  4.20939146828  4.16838730412  6.12147717932
O  2.12443315562  2.14962861554  18.5965193525
O  4.28381205887  2.15478853638  3.95458823448
O  6.31287331335  2.12604156219  6.10058954839
O  6.30162458646  2.20843388723  14.635733757
O  6.19937960499  4.00746665048  24.6117402099
O  3.99234811258  4.25654734826  10.2389251317
O  4.15784807871  6.27427286012  20.7256369779
O  6.2044828604  8.2395290438  12.3404530205
O  8.24026253286  8.19661601592  2.06029164156
O  2.10207122474  8.28618211214  24.5909393936
O  4.03901829535  8.14540099882  22.7615969486
O  6.19420866319  2.08150672302  22.7391346542
O  -0.0188134633525  4.22209330192  2.03892011276
O  1.95812089899  1.9581321865  14.4428700521
O  1.95651197862  4.12193341034  20.6610725939
O  0.109884862711  0.0832544188296  6.06447174941
O  4.2384898742  6.26785777985  24.5969354618
O  2.00330369523  4.21990248599  8.21999149661
O  2.10842894767  2.11895668681  2.05985227826
O  6.22184476103  4.05811383367  16.653898017
O  1.88333508872  4.08657715243  0.149317371372
O  2.01698237098  -0.0711002976857  4.19957134092
O  1.90688991024  -0.0790543308658  20.6619018091
O  6.12571249311  4.19345819794  12.4361033367
O  4.25540745256  6.06640846567  4.19863227498
O  4.14595548488  1.99039409625  16.5758369103
O  6.26962483822  2.12680625094  10.317166334
O  8.18240981674  6.26841815869  4.00920568683
O  4.14724786264  0.0845410408805  18.5462867975
O  2.25632195149  3.89491472059  12.2320381764
O  2.03283535147  6.28355632431  22.6189969043
O  4.0751107092  -0.0334265258595  10.341674513
O  6.18348678142  0.0268657600552  0.0795017818816
O  -0.0188725627301  0.0318792560175  22.5854808489
O  1.94857151859  6.06701025443  18.5506422945
O  6.21999333398  6.23431788366  2.11516425892
O  0.167654678297  4.20012106177  10.1774753914
O  6.1679360112  6.12635647113  6.08964955104
O  0.019276494602  6.12824218245  16.6180247069
O  6.1527812537  4.20499160678  4.18733164101
O  2.17245861414  4.20295723555  3.96804269389
O  6.33530981326  6.0853887204  10.2427709643
O  2.01524644317  0.0734968936944  12.4323904319
O  8.09367628129  6.26354166807  20.5214604083
O  1.9850334947  2.11724131376  10.2773943627
O  0.116727945517  6.13998058057  8.18290036562
O  6.14482615707  0.147615123282  8.13620766125
O  4.21931043388  4.22515694212  14.5042244826
O  2.04668453111  2.04371012146  6.24878109608
O  6.05933366585  6.09247740237  14.485738143
O  4.18366748997  6.13840428048  12.4390887594
O  2.15606104885  6.28607905993  14.6411223195
O  6.04140168677  1.97736586959  18.5375424615
O  1.92901150827  6.15612288909  10.163692915
O  0.0546082951469  4.17596368178  18.5425373601
O  4.11630154201  2.10495498905  12.3464905935
O  4.0259494294  6.24063808829  16.6518294201
O  3.95229913656  8.08781987398  14.6467133479
O  4.10587966771  4.05116598826  2.10289563183
O  2.02253890615  6.12214360379  2.09830000733
O  6.40203999517  3.93121032201  8.01911527242
O  8.10729101373  2.11088356839  24.5738910971
O  -0.0274904569107  1.97763437874  4.17582845008
O  2.15283201584  6.24685656204  6.16716975761
O  2.07232341106  8.16070825529  16.6313370174
O  6.09591386962  0.0500211572176  16.6078341111
O  4.18661180227  -0.0499389136004  2.08829919545
O  3.98504676917  4.00231005419  18.603655661
O  1.97174408117  4.16707554243  16.5866942087
O  8.14679120534  2.10722711741  16.6289840753
O  6.23796114218  4.20541073224  20.6799358595
O  8.0970035591  4.01001989959  14.6497964496
O  6.10918356792  6.07399765845  22.5680825551
O  -0.189302652262  1.94130376238  20.6841974259
O  8.06776518133  6.45533606926  12.2233882366
O  8.12260343095  4.07422517786  22.7023190678
O  0.0502024984539  2.02153481253  12.4313101108
O  6.25579911805  1.95204368247  2.01281840022
O  8.22397741823  2.11787176026  8.09373501583
O  6.21845452159  8.12844597915  20.5460422806
O  8.12338963078  8.16856485638  18.632684072
O  4.14475511301  4.15152154156  22.614731704
O  8.35719252885  8.22903177379  10.2572713017
O  8.26160875217  4.09729842495  6.11461477156
O  4.13051906313  1.99367684504  20.6745977339
O  4.27862032079  1.90420385681  8.16450276664
O  -0.168819507677  6.0857624644  0.0763521089556
O  1.90203852184  1.92166860605  22.5674827729
O  4.12177573524  8.20607939749  5.99460212247
O  0.0678010874582  0.109772251682  14.4569400814
O  4.30862686886  1.78345976558  0.259002422979
O  6.302461034  8.1366307745  3.99812529914
O  3.99292080115  6.42808772658  8.01812829032
O  2.14405583152  8.21922756232  8.0829946679
