160 angstroemd0
periodic  8.2376 8.2376  24.7128
G1  1.19760977962  5.11116736339  21.7389811927
G1  5.11341731256  0.837674661941  13.4500790375
G1  7.05276022987  7.29178893189  7.26912727534
G1  7.17478120483  7.01789585823  15.5159540061
G1  5.139119413  5.16262368292  0.963893741431
G1  2.98344650112  3.14854005018  7.08985950051
G1  0.940163337741  1.02344105105  1.06878834283
G1  5.08821679048  1.00933448257  5.1574594384
G1  3.12405189393  2.93190008102  15.40280091
G1  5.28603869625  1.09279301309  21.5550204103
G1  3.09153922731  7.1375201574  11.3274520006
G1  7.30701693643  3.14825746503  19.4882930596
G1  1.00727334546  5.01562023735  13.2642295022
G1  7.20950066228  3.16700647107  3.15547332905
G1  5.00871805973  5.23327336245  9.21952355426
G1  7.23827887456  7.32284737988  23.7076064895
G1  3.13615855129  7.32603400298  19.6015360051
G1  0.90717968845  1.05811090821  9.37195542584
G1  3.1698130441  7.31169557841  3.05232397896
G1  1.16007234963  1.0130173276  17.5270049813
G2  3.84825175482  0.202858817426  8.24815089121
G2  6.02278551918  5.99872432345  12.3309971732
G2  2.12095548722  2.09603109598  20.6040923467
G2  6.30080828549  6.18826147087  20.5537156906
G2  1.92364539325  6.31057680489  8.13852419345
G2  -0.0432140959259  2.02643613542  6.13602396889
G2  1.9528246754  2.06554027102  4.16561779944
G2  0.0577606080213  2.00051851936  14.367531928
G2  0.160180414858  6.09876153105  18.4789478084
G2  6.1679045736  0.0514816099869  2.06784988122
G2  5.98296438399  0.0863046267056  10.3592114155
G2  4.08631876086  2.18527685743  18.4775080594
G2  6.31214238312  -0.0380091876938  18.5457077356
G2  6.25190741256  2.02831180548  16.4595409384
G2  0.182984834485  2.02287216339  22.7218311233
G2  1.99457088957  -0.220607691827  14.5250462503
G2  3.92718236657  5.91416278023  14.4206103885
G2  6.15876730246  4.13794645851  6.20163108673
G2  4.14002310044  6.27930015341  22.7020079271
G2  0.0948287972071  4.13010570199  16.4766571877
G2  2.05191089715  4.16902229824  2.05891675062
G2  4.040353146  4.24518251009  20.5462192786
G2  4.06804235986  -0.210137449626  16.5391065542
G2  6.19440441262  4.16058874786  22.5984171717
G2  -0.0650728556972  6.09673290471  10.2778261887
G2  -0.0147184184384  -0.0567969170369  12.3703234125
G2  0.031725515042  4.2127705687  0.0416364111794
G2  6.09752484776  4.00104044713  14.3929165031
G2  4.06880550099  4.12131593466  4.08186382899
G2  2.09650819259  2.00980621069  12.281515088
G2  2.06321990706  4.04168347615  10.3197791719
G2  0.0506474988693  6.34837364274  2.17389851264
G2  0.220533002367  -0.0559184565449  20.7154625999
G2  4.04440759682  1.98582382893  1.93780715101
G2  6.08467181483  2.00121537642  -0.0593841499918
G2  -0.00467474406314  4.05133902808  8.23638520677
G2  5.9683717636  2.13485043259  8.34930622613
G2  3.93834888948  6.33306945275  6.11977412291
G2  6.25176267572  6.33476749807  4.18591731871
G2  2.15425364114  6.27797122244  -0.0386050923927
G3  5.0803059018  3.06731370075  11.3695871358
G3  3.1215679148  1.05095886805  23.660203531
G3  3.11369431107  5.09164352948  17.5023101364
G3  0.972725758709  7.28098401211  5.14435870153
O  2.08320320869  2.09581214845  2.07697558477
O  6.06889360505  6.1335653886  6.1438595109
O  4.18288741496  8.17567980082  6.31254516181
O  4.22891601525  0.119579365332  2.06391134683
O  8.12692397768  6.2715525559  4.05482977649
O  0.0274987638729  2.15370716482  4.19992150839
O  6.07910723506  4.09267806873  8.21141521162
O  1.87276305798  4.37086548387  0.236486553821
O  -0.0149764105479  4.27244272152  2.04937637046
O  7.98415310186  3.94608166659  6.41621864211
O  4.20883619305  2.060127205  0.0529169533333
O  3.95192746078  6.25913776635  8.10760398365
O  2.07127201627  0.0683440863806  4.10557933781
O  6.04531972651  8.18640456624  4.03190579078
O  2.05911464524  6.30038761826  6.24808746286
O  6.12518720765  2.08257207404  1.997129506
O  4.11895130312  4.06255011324  2.06673896935
O  4.14613245019  4.24691326661  6.06759490195
O  8.05656190837  2.06134791768  8.2348983817
O  0.0329965773408  6.20667494968  0.0752482472392
O  -0.130722992879  0.0544615686185  6.19585944385
O  8.11063297989  8.21656043573  2.05288392743
O  4.15453710121  6.13641662426  4.16841362785
O  4.0619166393  2.1256663256  4.05050481931
O  6.14747045969  2.11720272763  6.23994647026
O  2.02240133397  6.24340425143  2.03877636128
O  2.22959768907  3.97240123583  3.87974030104
O  6.06518694531  4.24129831307  4.20170607455
O  6.28119879891  0.146856039265  0.0984541319587
O  2.00394256155  8.19932249541  8.3889737274
O  6.21281481575  6.2538485786  2.12170600636
O  1.88750694666  2.13836273034  6.06666170765
O  1.97417448092  2.11678312032  10.3714834855
O  6.11457573385  6.01966603338  14.3496408381
O  4.04809253318  8.06764782634  14.5548262311
O  4.14095109394  -0.165721437184  10.1747624638
O  8.10357187346  6.17710453191  12.2606775318
O  0.172864279215  1.76638369555  12.5547151045
O  6.44193101455  3.84277060402  16.2299488336
O  1.99520839185  4.2265179486  8.23725393301
O  0.128657373634  4.27546467443  10.0562279244
O  8.26042179878  3.95770109183  14.4212659085
O  4.07589448  2.05255851976  8.08520192418
O  4.04488139088  6.17328591922  16.3586157001
O  2.00246951617  -0.0447153508767  12.4041968305
O  6.2208166404  8.09160032222  12.3099165175
O  2.0674537404  6.14164322259  14.2589232108
O  6.01132997623  1.97138102926  10.2312865383
O  4.04889212655  4.16100289695  10.3068592722
O  4.19647613371  4.06314980884  14.5028610469
O  8.27272582093  1.99110181107  16.3744134351
O  -0.0399468772215  6.20400224661  8.26431288566
O  0.0447753173471  -0.126702150186  14.4206897209
O  8.0655390438  8.11718635192  10.3945207043
O  4.18181184823  6.24467635347  12.4937790175
O  4.09573205914  1.91912777869  12.4038811014
O  6.26264397823  1.92838124614  14.4421652621
O  1.96862406229  6.10335902713  10.2350692014
O  2.00666712381  3.94428928179  12.2271371354
O  6.09546187457  4.12334260309  12.4744088793
O  6.02292304594  0.102134712392  8.37096461512
O  2.19028017381  8.28447612679  16.3956329756
O  6.18094037811  6.19702243775  10.343555235
O  2.06583012012  1.86299540628  14.3431178879
O  2.22898641128  1.9680924754  18.6385649736
O  6.23558594928  6.21336883348  22.5618619273
O  4.24780038228  8.28466297219  22.6137374256
O  4.29096015224  0.0506227668547  18.4690499592
O  8.35765206693  6.23857340083  20.630851493
O  0.113109757914  2.04734336323  20.6542749767
O  6.28225592289  4.09655745116  24.621856095
O  2.08135171939  3.98258292941  16.460306311
O  0.0563377370904  4.17489273225  18.4046245075
O  8.2072675258  4.07926113947  22.7536685019
O  4.26510782231  1.93310072235  16.546457107
O  4.08893974843  6.17858535749  24.6231691436
O  2.06759872267  0.130853450044  20.587374205
O  6.36311432847  8.25906785084  20.5257921729
O  2.21532567349  6.19575234621  22.7703562795
O  6.20092532457  1.97268572229  18.4540854415
O  4.13260967562  4.06108260904  18.6404089519
O  4.38763660014  4.38721673589  22.3901429093
O  8.18779127334  2.198679057  24.6685925052
O  0.0211707676721  6.03736176396  16.5570744522
O  -0.0738831892905  0.155075231151  22.5720849997
O  8.3023499785  8.2102303239  18.6061915993
O  4.27136317358  6.24975565689  20.6058302532
O  4.1776301399  2.15678761036  20.4942625419
O  6.28611588886  2.19999132182  22.6998338771
O  2.12272793718  6.20787946268  18.5688809437
O  2.17723739956  4.02886200918  20.6823131805
O  6.28497867817  4.22143372142  20.6069248745
O  6.14956098075  -0.00189662017597  16.5480356993
O  2.03866560767  8.26330093518  24.7267896567
O  6.50158370314  6.36444720361  18.7394341671
O  2.03302398452  2.02619457787  22.5676825302
