160 angstroemd0
periodic  8.2376 8.2376  24.7128
G1  1.08682894604  1.10108910341  17.5844151969
G1  3.02966821006  3.07706642269  23.6521494572
G1  1.07286756272  5.22351864741  5.07187463054
G1  7.28294363849  7.25107143218  15.5221396167
G1  3.16052775199  7.26501554656  3.00957287781
G1  0.938004283203  5.05808401262  21.5573344773
G1  1.03854554341  1.11278182167  1.03437544243
G1  5.09297716095  1.13826253151  5.25460315361
G1  1.03082909736  5.1874571992  13.364004558
G1  5.07851328243  5.08172245662  9.15213836282
G1  2.96899483858  7.11345344224  11.2717289076
G1  0.935248353396  0.909583069761  9.32227480457
G1  5.1564744195  5.2883331267  17.4699083819
G1  7.11750970999  7.11618844771  23.7494669771
G1  7.34774339717  3.0970680646  3.12410449879
G1  3.17219902756  7.21674584069  19.5596172996
G1  3.197669177  3.03357164713  15.3393801114
G1  7.14113973175  3.01915372586  11.4418521851
G1  5.13649158729  0.970249751617  21.6546617233
G1  7.24687617362  7.20905826592  7.22997809529
G2  6.04242252677  2.18853350319  16.5295563384
G2  6.14430192956  0.109897414623  1.99112904363
G2  2.22987553166  6.11376722289  16.3612449745
G2  6.13442385859  4.19035501776  14.3684538991
G2  -0.224326138682  5.95389083329  10.2969931347
G2  -0.138767695085  4.0185531249  0.0271214571024
G2  -0.118386987366  1.99045436909  22.6716666258
G2  1.90891294954  6.03631428173  8.17541773118
G2  6.07850281842  -0.166939242316  10.4082682252
G2  -0.0361853667615  2.06043110184  14.4693419156
G2  4.15608525822  2.09667689339  10.2969983811
G2  4.12787619947  0.0331015508622  16.4669775912
G2  6.08667499874  0.148378245564  18.5919309427
G2  0.0711372087513  6.16293568444  18.5241558663
G2  2.09252245632  2.0684584049  4.12701861442
G2  4.14596268206  4.15914256695  12.3819253464
G2  2.09314037174  2.12461760474  20.5697585554
G2  6.2497641194  4.07500098496  6.22555304641
G2  6.21854620871  2.08655948486  8.21208886883
G2  5.99151970382  3.93209170477  22.6533989961
G2  2.20776877467  4.02722364639  2.00206964036
G2  2.08037926418  2.05052857226  12.3388306561
G2  6.17839004842  6.25317762252  4.07277328857
G2  0.0749938249674  4.11895492789  16.5212362159
G2  4.10994645648  0.020978357788  8.25515816898
G2  -0.141918345928  -0.150493022582  12.4185887871
G2  1.9719065417  0.129371945763  6.23895293415
G2  0.00774543960847  0.0226054732878  20.6022575267
G2  4.04986670142  6.05978010707  22.6351404707
G2  -0.0644310893083  0.170487295181  4.23275880453
G2  4.11984205956  6.14200756376  6.12464690469
G2  2.16931996708  4.0848698267  18.6028726312
G2  6.07796088835  6.03942507774  20.5668817744
G2  2.08202440162  6.18591561668  -0.00824476471099
G2  2.18878653345  -0.0875149057102  14.3550282872
G2  2.05319129472  -0.00622572717281  22.6534064362
G2  4.18403771821  0.0337316411175  0.0242497102173
G2  1.89247854872  4.01911028504  10.1857296217
G2  4.24793543555  3.98303402613  4.0644394237
G2  -0.0152414673717  6.24931929874  2.06986140506
G3  5.15366052019  3.09524511868  19.5701017829
G3  0.994655931056  3.04712167852  7.17176871105
G3  5.10654025991  7.17280697513  13.4222394038
G3  5.15465706426  3.09425334969  1.02391002042
O  1.9818178477  2.17306123873  2.16143580989
O  6.17403630944  6.18934941575  6.08634054365
O  4.02778253997  8.16466474942  6.27494641453
O  4.21722843045  0.00555868422909  1.93557528863
O  8.25506668713  6.31229473253  4.04709220876
O  0.13408762421  2.01744473096  4.11365348967
O  6.1266788876  4.01528303502  8.13497764964
O  1.98504699785  4.20689372112  0.0645668970392
O  0.0853548492338  4.23646983863  1.98695415674
O  8.24991185284  4.19141943913  6.12898665019
O  4.05973675761  2.04322312217  0.00737550715463
O  4.00021105413  6.2387784079  8.12025212517
O  2.03663329533  0.0628272879577  4.17587789649
O  6.23427886329  8.30636198285  4.14757162206
O  2.14753025491  6.23461502183  6.2244409939
O  6.25351895246  2.08051244419  2.07845117338
O  4.08566775991  4.08551063038  2.16553120969
O  4.36243502491  4.33499639883  5.9043793648
O  8.19594092881  1.97240224962  8.24413505265
O  0.0681319773712  6.08943702873  0.0777716756148
O  0.110209694861  -0.122021538187  6.09526423473
O  8.22618222741  8.25528321089  2.11886988276
O  4.2166404169  6.24676418993  4.13706588856
O  4.01954635958  2.12217991852  4.1989305539
O  6.16287299604  2.15255635011  6.29214565088
O  2.00044930951  6.14813356054  1.98668657366
O  2.15517076182  4.12122787961  4.01887693311
O  6.24824443779  4.221235038  4.12628360083
O  6.10335268757  -0.0443858102401  0.068375118908
O  2.10919639891  8.15864666876  8.20455308769
O  6.385333121  6.44709612455  2.25822614328
O  2.00115865386  1.97961021247  6.09642392672
O  2.00534100641  2.0615677167  10.3245734076
O  6.25086093444  6.1905015162  14.4650163009
O  4.03902090297  8.17930209772  14.4975812902
O  4.1209870491  -0.0540539448745  10.269436886
O  8.34541109435  6.24235078012  12.2242039344
O  0.0605696718718  1.94080288237  12.4737362655
O  6.28063998241  4.18882319681  16.4677336117
O  1.93423485175  4.15673575004  8.30424712287
O  0.00408227358681  4.10726034358  10.4497288763
O  8.24874771321  4.11460570186  14.5076606628
O  4.29172911921  1.85149569385  8.47448888193
O  4.0768466098  6.31226026201  16.4803426258
O  1.98045874508  0.0497878187331  12.3894387019
O  6.21610639011  8.11242390246  12.2897515257
O  1.93730235045  6.28841082903  14.4987429101
O  6.15294857124  1.93125423848  10.2971072044
O  3.99061495131  4.09353492317  10.2968774203
O  4.21197887414  4.10348075612  14.30186095
O  8.30619494024  2.15721453445  16.456924809
O  0.0641549793562  6.28604353852  8.36978955231
O  0.0564109286231  0.088135330639  14.3695510775
O  8.10928516225  8.13069056909  10.4288012856
O  4.0317781247  6.13652050912  12.3498830475
O  3.91091243407  2.23235348971  12.1195069336
O  6.39440380308  2.30302690219  14.6896197241
O  1.95251158127  6.04991132922  10.1651991685
O  2.07794849584  4.06741906947  12.2908262682
O  6.07470126507  4.06732383484  12.4590156334
O  6.12683644624  0.0185667914441  8.30319155698
O  2.1222425206  8.21480513085  16.418119828
O  6.16663192335  6.18226266245  10.1442468009
O  1.98649249486  1.96835097108  14.3190388751
O  2.0649553097  2.15779253693  18.6584349896
O  6.09973360933  6.08423046299  22.5821651322
O  4.02421925832  8.22922559698  22.7277321751
O  4.23251199378  -0.0776085982768  18.4325566113
O  8.14885471376  6.24630810728  20.5162351062
O  0.202147410655  1.83254121255  20.8256153291
O  6.24402909423  4.03331936551  24.5948739965
O  2.12816821447  4.17487401987  16.4464049796
O  0.268934450116  4.32590666364  18.3357773287
O  8.14362422577  4.04031951782  22.7246271009
O  4.18157703894  1.96012922371  16.3950559575
O  3.89196552947  6.38032290664  24.4811863662
O  2.0324631357  -0.0110480638723  20.6649053505
O  6.26632439361  8.1632381086  20.5294403992
O  2.00905280246  6.20767226927  22.6453846256
O  6.14491669246  2.02627578075  18.4284653683
O  4.13990857641  4.19410840358  18.5155639603
O  4.12182952435  4.18051088102  22.7424288192
O  8.37527647697  2.15239980765  24.5669378148
O  0.134086428366  6.19565280462  16.5469301862
O  0.0295054692848  -0.0503656543821  22.661424989
O  8.2075404751  8.17863380955  18.607319529
O  4.21181386566  6.31588495166  20.7398815964
O  4.1026351296  2.00031496877  20.586632919
O  6.23994450756  2.06240409496  22.5643700543
O  2.07709706888  6.16678707562  18.4751329221
O  2.01503035509  4.04392562847  20.5256252466
O  6.09272798807  4.18461823269  20.711930392
O  6.18065289271  0.0957843023498  16.5751272341
O  2.04837479999  8.21064311525  24.6419086606
O  6.2958855279  6.26352570937  18.6070564447
O  2.0509973839  1.96482679417  22.5790964275
